{
  "Colors" : {
    // alternate basket item cell background color
    "Alternate Basket Item Cell Background Color" : [247, 247, 247, 255],
    // alternate basket item detail text color
    "Alternate Basket Item Cell Detail Foreground Color" : [0, 0, 0, 255],
    // alternate basket item text color
    "Alternate Basket Item Cell Foreground Color" : [0, 0, 0, 255],
    "Aqua" : [0, 128, 255, 255],
    // The background colour of the barcode manual entry popup
    "Barcode Scanner Background Color" : [0, 0, 0, 225],
    // The colour of the barcode manual override button
    "Barcode Scanner Button Background Color" : [0, 0, 0, 255],
    // The colour of the text on the barcode manual override button
    "Barcode Scanner Button Foreground Color" : [255, 255, 255, 255],
    // The colour of the border on the barcode manual override popup and button
    "Barcode Scanner Foreground Color" : [255, 255, 255, 255],
    // basket item cell background color
    "Basket Item Cell Background Color" : [0, 0, 0, 0],
    // basket item detail text color
    "Basket Item Cell Detail Foreground Color" : [0, 0, 0, 255],
    // basket item text color
    "Basket Item Cell Foreground Color" : [0, 0, 0, 255],
    // basket item header cell background color
    "Basket Item Header Cell Background Color" : [229, 229, 229, 255],
    "Black" : [0, 0, 0, 255],
    "Blue" : [0, 0, 255, 255],
    "Burberry beige" : [226, 211, 205, 255],
    "Burberry black" : [39, 39, 39, 255],
    "Burberry grey" : [41, 41, 41, 255],
    "Burberry silver" : [153, 153, 153, 255],
    "Burberry white" : [254, 254, 254, 255],
    // cell badge color
    "Cell Badge Background Color" : [152, 164, 179, 255],
    // cell badge text color
    "Cell Badge Foreground Color" : [255, 255, 255, 255],
    // cell key text color
    "Cell Key Foreground Color" : [0, 0, 0, 255],
    // cell text color
    "Cell Text Foreground Color" : [0, 0, 0, 255],
    // cell value text color
    "Cell Value Foreground Color" : [56.1, 84.16, 135.15, 255],
    "Clear" : [0, 0, 0, 0],
    "DarkGrey" : [84, 84, 84, 255],
    // editable cell key text color
    "Editable Cell Key Foreground Color" : [56.1, 84.16, 135.15, 255],
    // editable cell value text color
    "Editable Cell Value Foreground Color" : [0, 0, 0, 255],
    // editable table background color
    "Editable Table Background Color" : [0, 0, 0, 0],
    // editable table cell background color
    "Editable Table Cell Background Color" : [0, 0, 0, 0],
    // Foreground colour for editable table views
    "Editable Table Foreground Color" : [0, 0, 0, 0],
    // Shadow colour for editable table views
    "Editable Table Shadow Color" : [0, 0, 0, 0],
    "Green" : [0, 255, 0, 255],
    "Green (faded)" : [0, 255, 0, 128],
    "Grey" : [102, 102, 102, 255],
    // sales menu background color, gift receipt header and footer color
    "Menu Background Color" : [56, 59, 65, 255],
    // menu button foreground color (disabled). Used for text in primary and secondary menu buttons, and the tender description fields
    "Menu Button Foreground Disabled Color" : [255, 255, 255, 76],
    // menu button foreground color (enabled). Used for text in primary and secondary menu buttons, and the tender description fields
    "Menu Button Foreground Enabled Color" : [255, 255, 255, 255],
    // Background colour used for the change view in the tendered step
    "Menu Change View Background Color" : [0, 0, 0, 0],
    // Foreground colour used for the change view in the tendered step
    "Menu Change View Foreground Color" : [255, 255, 255, 255],
    // Background colour used for comment views in tender steps
    "Menu Comment View Background Color" : [0, 0, 0, 0],
    // Foreground colour used for comment views in tender steps
    "Menu Comment View Foreground Color" : [255, 255, 255, 255],
    // sales menu foreground color, use to set the icon tint and text color
    "Menu Foreground Color" : [255, 255, 255, 255],
    // menu primary button background color (disabled). Used for tenders and the print email buttons
    "Menu Primary Button Background Disabled Color" : [113, 140, 106, 16],
    // menu primary button background color (enabled). Used for tenders and the print email buttons
    "Menu Primary Button Background Enabled Color" : [113, 140, 106, 76],
    // menu secondary button background color. Used the cancel check out button and the Finish transaction button
    "Menu Secondary Button Background Color" : [0, 0, 0, 76],
    "NavBarSilverTint" : [205, 205, 205, 180],
    // Background colour used for all navigation bars
    "Navigation Bar Background Color" : [185, 196, 51, 255],
    // Foreground (text) colour used for all navigation bars
    "Navigation Bar Foreground Color" : [84, 84, 84, 255],
    // Shadow colour used for all navigation bar titles
    "Navigation Bar Shadow Color" : [0, 0, 0, 0],
    "OmnicoGreen" : [185, 196, 51, 255],
    "Orange" : [245, 124, 34, 255],
    // Background colour for primary button used in add discount view and the signon button on login screen
    "Primary Button Background Color" : [0, 204, 0, 255],
    // Foreground colour for primary button used in add discount view and the signon button on login screen
    "Primary Button Foreground Color" : [0, 0, 0, 255],
    "Red" : [255, 0, 0, 255],
    // Background colour for non-primary buttons used in tool bars and cancel buttons
    "Secondary Button Background Color" : [205, 205, 205, 255],
    // Foreground colour for non-primary buttons used in tool bars and cancel buttons
    "Secondary Button Foreground Color" : [0, 0, 0, 255],
    "SlightlyTransparentBlack" : [0, 0, 0, 200],
    // Foreground colour for the sub total displayed above the basket
    "Sub Total Foreground Color" : [84, 84, 84, 255],
    // Foreground colour for sub total label
    "Sub Total Label Foreground Color" : [135, 135, 135, 255],
    // Shadow colour for sub total label
    "Sub Total Shadow Color" : [252, 252, 252, 255],
    // table background color
    "Table Background Color" : [0, 0, 0, 0],
    // table cell background color
    "Table Cell Background Color" : [0, 0, 0, 0],
    // Foreground colour for table views
    "Table Foreground Color" : [0, 0, 0, 0],
    // Shadow colour for table views
    "Table Shadow Color" : [0, 0, 0, 0],
    // table tint color
    "Table Tint Color" : [185, 196, 51, 255],
    "UICellValueBlue" : [56.1, 84.16, 135.15, 255],
    "White" : [255, 255, 255, 255],
    "Yellow" : [255, 255, 102, 255],
    "Scanning Button Background Color" : [0, 0, 0, 255], 
    "Sales Menu Background Color" : [255, 255, 255, 255],
    "Keyboard Accessory Background Color" : [247, 247, 247, 255],
    "Keyboard Accessory Button Background Color" : [0, 0, 0, 255],
    "Keyboard Accessory Button Disabled Background Color" : [247, 247, 247, 255],
    "Keyboard Accessory Button Foreground Color" : [255, 255, 255, 255],
    "Keyboard Accessory Foreground Color" : [0, 0, 0, 255],
    "Keyboard Accessory Text Field Background Color" : [255, 255, 255, 255],
    "Search View Background Color" : [247, 247, 247, 255],
    "Search View Foreground Color" : [0, 0, 0, 255],
    "Search Bar Background Color" : [247, 247, 247, 255],
    "Search Bar Foreground Color" : [0, 0, 0, 255],
    "No Sale Menu Button Background Color" : [255, 255, 255, 255],
    "No Sale Menu Button Foreground Color" : [0, 0, 0, 255],
    "Print Options View Foreground Color" : [255, 255, 255, 255],
    "Print Options View Background Color" : [0, 0, 0, 255],
    "Print Options View Indicator Ring Color" : [247, 247, 247, 255],
    "Tender Bar Foreground Color" : [255, 255, 255, 255],
    "Tender Bar Background Color" : [155, 155, 155, 255],
    "Tender Bar Tender Background Color" : [0, 0, 0, 255],
    "Selected Tender Menu Item Color" : [0, 0, 0, 255],
    "Status View Background Color" : [185, 196, 51, 255],
    "Status View Foreground Color" : [0, 0, 0, 255],
    "Status View Training Background Color" : [0, 0, 0, 0],
  },
  "Fonts" : {
    // Font used for alternate basket item detail text
    "Alternate Basket Item Cell Detail Font" : ["HelveticaNeue", 11],
    // Font used for alternate basket item text
    "Alternate Basket Item Cell Font" : ["HelveticaNeue", 14],
    // Font used for barcode manual override button
    "Barcode Scanner Font" : ["HelveticaNeue", 11],
    // Font used for basket item detail text
    "Basket Item Cell Detail Font" : ["HelveticaNeue", 11],
    // Font used for basket item text
    "Basket Item Cell Font" : ["HelveticaNeue", 14],
    // Font used for cell badges
    "Cell Badge Font" : ["HelveticaNeue-Bold", 14],
    // Font used for cell key text
    "Cell Key Font" : ["HelveticaNeue-Bold", 14],
    // Font used for cell text
    "Cell Text Font" : ["HelveticaNeue", 14],
    // Font used for cell value text
    "Cell Value Font" : ["HelveticaNeue", 14],
    // Font used for editable cell key text
    "Editable Cell Key Font" : ["HelveticaNeue-Bold", 12],
    // Font used for editable cell value text
    "Editable Cell Value Font" : ["HelveticaNeue", 15],
    // Font used for POS function buttons
    "Menu Button Font" : ["HelveticaNeue", 10],
    // Font used for tendered step change view
    "Menu Change View Font" : ["HelveticaNeue", 30],
    // Font used for tender step comment view
    "Menu Comment View Font" : ["HelveticaNeue", 17],
    // Font used for primary tender step buttons (cash, print, etc)
    "Menu Primary Button Font" : ["HelveticaNeue", 17],
    // Font used for secondary tender step buttons (cancel, finish)
    "Menu Secondary Button Font" : ["HelveticaNeue", 17],
    // Font used for primary buttons (confirm)
    "Primary Button Font" : ["HelveticaNeue", 14],
    // Font used for secondary buttons (cancel)
    "Secondary Button Font" : ["HelveticaNeue", 14],
    // Font used for the sub total
    "Sub Total Font" : ["HelveticaNeue-Bold", 42],
    // Font used for the sub total label
    "Sub Total Label Font" : ["HelveticaNeue-Bold", 14],
    // Font used for the accessory view
    "Keyboard Accessory Font" : ["HelveticaNeue", 14],
    // Font used for the print options view
    "Print Options View Font" : ["HelveticaNeue", 10],
    // Font used for the tender bar
    "Tender Bar Font" : ["HelveticaNeue", 10],
    // Font used for the change label in the navigation bar
    "Change Font" : ["HelveticaNeue", 17],
    // Font used for the foreign currency label in the navigation bar
    "Foreign Currency Font" : ["HelveticaNeue", 17],
    // Font used for the status view
    "Status View Font" : ["HelveticaNeue", 8],
    // Font used for the status view training mode label
    "Status View Training Font" : ["HelveticaNeue", 10],
  },
}
